\begin{thebibliography}{10}

\bibitem{emacs-wiki-diary-mode}
Emacs wiki.
\newblock \url{https://www.emacswiki.org/emacs/DiaryMode}.

\bibitem{emacs-wiki-regex-syntax}
Emacs wiki.
\newblock \url{https://www.emacswiki.org/emacs/RegularExpression#toc1}.

\bibitem{emacs-wiki-regex-commands}
Emacs wiki.
\newblock \url{https://www.emacswiki.org/emacs/RegularExpression#toc4}.

\bibitem{Emacs-23.1-Release-Notes}
Gnu emacs news -- history of user-visible changes.
\newblock \url{https://www.gnu.org/software/emacs/news/NEWS.23.1}.

\bibitem{org-mode-lists}
Org mode manual.
\newblock \url{https://orgmode.org/org.html#Headlines}.

\bibitem{org-mode-todo}
Org mode manual.
\newblock \url{https://orgmode.org/org.html#TODO-Items}.

\bibitem{org-mode-clocking}
Org mode manual.
\newblock \url{https://orgmode.org/org.html#Clocking-Work-Time}.

\bibitem{org-mode-tables}
Org mode manual.
\newblock \url{https://orgmode.org/org.html#Tables}.

\bibitem{org-mode-links}
Org mode manual.
\newblock \url{https://orgmode.org/org.html#Hyperlinks}.

\bibitem{org-mode-inline}
Org mode manual.
\newblock \url{https://orgmode.org/org.html#Images}.

\bibitem{org-mode-code-blocks}
Org mode manual.
\newblock \url{https://orgmode.org/org.html#Working-with-Source-Code}.

\bibitem{org-mode-code-blocks-languages}
Org mode manual.
\newblock \url{https://orgmode.org/org.html#Languages}.

\bibitem{org-mode-agenda}
Org mode manual.
\newblock \url{https://orgmode.org/org.html#Agenda-Views}.

\bibitem{org-mode-exporting}
Org mode manual.
\newblock \url{https://orgmode.org/org.html#Exporting}.

\bibitem{org-mode-agenda-diary}
Org mode manual.
\newblock \url{https://orgmode.org/org.html#Weekly_002fdaily-agenda}.

\bibitem{space-cadet}
Symbolics space-cadet keyboard.
\newblock
  \url{https://upload.wikimedia.org/wikipedia/commons/4/47/Space-cadet.jpg}.

\bibitem{Emacs-Manual}
Free~Software Foundation.
\newblock {\em GNU Emacs Manual}, 1985-1987, 1993-2018.

\bibitem{star-trek-man-trap}
George~Clayton Johnson.
\newblock Star trek tos s1e1.
\newblock Television Broadcast, 1966.

\bibitem{xkcd-378}
Randall Monroe.
\newblock xkcd 378: Real programmers.
\newblock \url{https://www.xkcd.com/378/}.

\end{thebibliography}
